{
    "code":200,
    "message":null,
    "path":"/product/page",
    "data":{
        "content":[
            {
                "productId":"2c9780827c30630d017c306c65600000",
                "productName":"网站后台权限管理系统",
                "productLang":"Java",
                "productPrice":0.01,
                "productOriginalPrice":0.01,
                "status":0,
                "storageAttachments":[
                    {
                        "attachmentName":"BANNER",
                        "sortNum":0,
                        "attachmentKey":"https://ttchain.tntlinking.com/files/original/ea705a33-f773-41bb-9cdf-6bea92b8b557.png",
                        "attachmentKeyThumbnail":"https://ttchain.tntlinking.com/files/thumbnail/ea705a33-f773-41bb-9cdf-6bea92b8b557.png"
                    },
                    {
                        "attachmentName":"EXEC_IMG",
                        "sortNum":0,
                        "attachmentKey":"https://ttchain.tntlinking.com/files/original/d1a29a85-eb0a-43e5-8c93-ea7c8cfc562d.png",
                        "attachmentKeyThumbnail":"https://ttchain.tntlinking.com/files/thumbnail/d1a29a85-eb0a-43e5-8c93-ea7c8cfc562d.png"
                    },
                    {
                        "attachmentName":"CODE_TREE",
                        "sortNum":0,
                        "attachmentKey":"https://ttchain.tntlinking.com/files/original/7eb50979-9f41-459a-94e1-abf151e22948.png",
                        "attachmentKeyThumbnail":"https://ttchain.tntlinking.com/files/thumbnail/7eb50979-9f41-459a-94e1-abf151e22948.png"
                    }
                ],
                "cstCreate":"2021-09-29 15:19:43",
                "cstCreateTimestamp":1632899983000,
                "createUserId":"06ecb4a7-9f5f-4595-bb9d-f5da9222956b",
                "authorNickname":"linda.zx",
                "authorHeadImgUrl":"http://thirdwx.qlogo.cn/mmopen/Q3auHgzwzM7ibLELK9Y29HSxKiacWW4MO247Wib585lvxgzA4ZI0XVNcc9gbp0r84LXDjbyj5pt2zcXoPgBKmSEJQ/132",
                "countBrowses":103,
                "bought":false
            },
            {
                "productId":"2c9780827c215bb5017c253bda56000c",
                "productName":"2021-09-27 11:09:10",
                "productLang":"Java",
                "productPrice":1,
                "productOriginalPrice":1,
                "status":0,
                "storageAttachments":[
                    {
                        "attachmentName":"BANNER",
                        "sortNum":0,
                        "attachmentKey":"https://ttchain.tntlinking.com/files/original/ba605ba1-43a7-4746-99ed-2a67d8c65cd3.png",
                        "attachmentKeyThumbnail":"https://ttchain.tntlinking.com/files/thumbnail/ba605ba1-43a7-4746-99ed-2a67d8c65cd3.png"
                    },
                    {
                        "attachmentName":"EXEC_IMG",
                        "sortNum":0,
                        "attachmentKey":"https://ttchain.tntlinking.com/files/original/8cc518ff-68a6-4882-996a-d53fc08b580f.jpg",
                        "attachmentKeyThumbnail":"https://ttchain.tntlinking.com/files/thumbnail/8cc518ff-68a6-4882-996a-d53fc08b580f.jpg"
                    },
                    {
                        "attachmentName":"CODE_TREE",
                        "sortNum":0,
                        "attachmentKey":"https://ttchain.tntlinking.com/files/original/40c57508-1e8b-4a96-8b22-049aa358db56.jpg",
                        "attachmentKeyThumbnail":"https://ttchain.tntlinking.com/files/thumbnail/40c57508-1e8b-4a96-8b22-049aa358db56.jpg"
                    }
                ],
                "cstCreate":"2021-09-27 11:10:52",
                "cstCreateTimestamp":1632712252000,
                "createUserId":"76838076-82f1-4032-9b1d-5e052b5906c2",
                "authorNickname":"122",
                "authorHeadImgUrl":"https://ttchain.tntlinking.com/userCenter_data/76838076-82f1-4032-9b1d-5e052b5906c2.png",
                "countBrowses":49,
                "bought":false
            },
            {
                "productId":"2c9780827c215bb5017c216c716a0000",
                "productName":"2021-09-26 17:24:12",
                "productLang":"Java",
                "productPrice":2,
                "productOriginalPrice":2,
                "status":0,
                "storageAttachments":[
                    {
                        "attachmentName":"BANNER",
                        "sortNum":0,
                        "attachmentKey":"https://ttchain.tntlinking.com/files/original/151381d4-3718-473d-a327-c5ecc4c82351.jpg",
                        "attachmentKeyThumbnail":"https://ttchain.tntlinking.com/files/thumbnail/151381d4-3718-473d-a327-c5ecc4c82351.jpg"
                    },
                    {
                        "attachmentName":"EXEC_IMG",
                        "sortNum":0,
                        "attachmentKey":"https://ttchain.tntlinking.com/files/original/e641c5e0-87ef-492d-a962-ceb28194bcae.jpg",
                        "attachmentKeyThumbnail":"https://ttchain.tntlinking.com/files/thumbnail/e641c5e0-87ef-492d-a962-ceb28194bcae.jpg"
                    },
                    {
                        "attachmentName":"CODE_TREE",
                        "sortNum":0,
                        "attachmentKey":"https://ttchain.tntlinking.com/files/original/0dc6ce71-eb66-4cbd-b794-df6e69356a22.jpg",
                        "attachmentKeyThumbnail":"https://ttchain.tntlinking.com/files/thumbnail/0dc6ce71-eb66-4cbd-b794-df6e69356a22.jpg"
                    }
                ],
                "cstCreate":"2021-09-26 17:25:28",
                "cstCreateTimestamp":1632648328000,
                "createUserId":"411e73b1-8be7-4d8d-83a3-6b2948b2fbf5",
                "authorNickname":"Hatsune Imagine",
                "authorHeadImgUrl":"https://ttchain.tntlinking.com/userCenter_data/411e73b1-8be7-4d8d-83a3-6b2948b2fbf5.jpg",
                "countBrowses":21,
                "bought":false
            },
            {
                "productId":"2c9780827c17003f017c209272df0040",
                "productName":"wx支付工具类",
                "productLang":"Java",
                "productPrice":10,
                "productOriginalPrice":10,
                "status":0,
                "storageAttachments":[
                    {
                        "attachmentName":"BANNER",
                        "sortNum":0,
                        "attachmentKey":"https://ttchain.tntlinking.com/files/original/3d072d1b-def7-48a6-8d18-6079e3c6571a.png",
                        "attachmentKeyThumbnail":"https://ttchain.tntlinking.com/files/thumbnail/3d072d1b-def7-48a6-8d18-6079e3c6571a.png"
                    },
                    {
                        "attachmentName":"EXEC_IMG",
                        "sortNum":0,
                        "attachmentKey":"https://ttchain.tntlinking.com/files/original/466bfb8e-e1b8-42e2-9355-e1336c2ab14b.png",
                        "attachmentKeyThumbnail":"https://ttchain.tntlinking.com/files/thumbnail/466bfb8e-e1b8-42e2-9355-e1336c2ab14b.png"
                    },
                    {
                        "attachmentName":"CODE_TREE",
                        "sortNum":0,
                        "attachmentKey":"https://ttchain.tntlinking.com/files/original/bcedecea-969a-451c-8c94-92e3117d8d5a.png",
                        "attachmentKeyThumbnail":"https://ttchain.tntlinking.com/files/thumbnail/bcedecea-969a-451c-8c94-92e3117d8d5a.png"
                    }
                ],
                "cstCreate":"2021-09-26 13:27:21",
                "cstCreateTimestamp":1632634041000,
                "createUserId":"76838076-82f1-4032-9b1d-5e052b5906c2",
                "authorNickname":"122",
                "authorHeadImgUrl":"https://ttchain.tntlinking.com/userCenter_data/76838076-82f1-4032-9b1d-5e052b5906c2.png",
                "countBrowses":8,
                "bought":false
            },
            {
                "productId":"2c9780827c17003f017c177d69360029",
                "productName":"2021-09-24 19:06:23",
                "productLang":"Java",
                "productPrice":1,
                "productOriginalPrice":1,
                "status":0,
                "storageAttachments":[
                    {
                        "attachmentName":"BANNER",
                        "sortNum":0,
                        "attachmentKey":"https://ttchain.tntlinking.com/files/original/e540d019-5563-4460-9fe1-cd9f4f5ec1f3.jpg",
                        "attachmentKeyThumbnail":"https://ttchain.tntlinking.com/files/thumbnail/e540d019-5563-4460-9fe1-cd9f4f5ec1f3.jpg"
                    },
                    {
                        "attachmentName":"EXEC_IMG",
                        "sortNum":0,
                        "attachmentKey":"https://ttchain.tntlinking.com/files/original/df3bab0f-f45e-4242-9f2d-3aebfe6594e4.jpg",
                        "attachmentKeyThumbnail":"https://ttchain.tntlinking.com/files/thumbnail/df3bab0f-f45e-4242-9f2d-3aebfe6594e4.jpg"
                    },
                    {
                        "attachmentName":"CODE_TREE",
                        "sortNum":0,
                        "attachmentKey":"https://ttchain.tntlinking.com/files/original/32ea1868-dd09-454c-9cdf-a608ca22f1cc.jpg",
                        "attachmentKeyThumbnail":"https://ttchain.tntlinking.com/files/thumbnail/32ea1868-dd09-454c-9cdf-a608ca22f1cc.jpg"
                    }
                ],
                "cstCreate":"2021-09-24 19:07:47",
                "cstCreateTimestamp":1632481667000,
                "createUserId":"411e73b1-8be7-4d8d-83a3-6b2948b2fbf5",
                "authorNickname":"Hatsune Imagine",
                "authorHeadImgUrl":"https://ttchain.tntlinking.com/userCenter_data/411e73b1-8be7-4d8d-83a3-6b2948b2fbf5.jpg",
                "countBrowses":4,
                "bought":false
            },
            {
                "productId":"2c9780827c17003f017c172bc7990009",
                "productName":"测试第二把",
                "productLang":"Java",
                "productPrice":3.5,
                "productOriginalPrice":3.5,
                "status":0,
                "storageAttachments":[
                    {
                        "attachmentName":"BANNER",
                        "sortNum":0,
                        "attachmentKey":"https://ttchain.tntlinking.com/files/original/3065b3d1-613e-4d30-a43f-2e20b165a281.png",
                        "attachmentKeyThumbnail":"https://ttchain.tntlinking.com/files/thumbnail/3065b3d1-613e-4d30-a43f-2e20b165a281.png"
                    },
                    {
                        "attachmentName":"EXEC_IMG",
                        "sortNum":0,
                        "attachmentKey":"https://ttchain.tntlinking.com/files/original/2a3ddddc-569e-4f4c-86de-5ae06ef2a491.png",
                        "attachmentKeyThumbnail":"https://ttchain.tntlinking.com/files/thumbnail/2a3ddddc-569e-4f4c-86de-5ae06ef2a491.png"
                    },
                    {
                        "attachmentName":"CODE_TREE",
                        "sortNum":0,
                        "attachmentKey":"https://ttchain.tntlinking.com/files/original/6c21bd43-cfc8-41de-a7fe-dd0ac3036345.png",
                        "attachmentKeyThumbnail":"https://ttchain.tntlinking.com/files/thumbnail/6c21bd43-cfc8-41de-a7fe-dd0ac3036345.png"
                    }
                ],
                "cstCreate":"2021-09-24 17:38:38",
                "cstCreateTimestamp":1632476318000,
                "createUserId":"76838076-82f1-4032-9b1d-5e052b5906c2",
                "authorNickname":"122",
                "authorHeadImgUrl":"https://ttchain.tntlinking.com/userCenter_data/76838076-82f1-4032-9b1d-5e052b5906c2.png",
                "countBrowses":3,
                "bought":false
            },
            {
                "productId":"2c9780827bf34b0e017c15c361d60183",
                "productName":"测试3333",
                "productLang":"Java",
                "productPrice":22,
                "productOriginalPrice":22,
                "status":0,
                "storageAttachments":[
                    {
                        "attachmentName":"BANNER",
                        "sortNum":0,
                        "attachmentKey":"https://ttchain.tntlinking.com/files/original/89bbd910-d81e-4a6e-bb17-13fe3d1fea6f.png",
                        "attachmentKeyThumbnail":"https://ttchain.tntlinking.com/files/thumbnail/89bbd910-d81e-4a6e-bb17-13fe3d1fea6f.png"
                    },
                    {
                        "attachmentName":"EXEC_IMG",
                        "sortNum":0,
                        "attachmentKey":"https://ttchain.tntlinking.com/files/original/fac2d6b6-f709-4851-95c1-4c55cb4bf926.png",
                        "attachmentKeyThumbnail":"https://ttchain.tntlinking.com/files/thumbnail/fac2d6b6-f709-4851-95c1-4c55cb4bf926.png"
                    },
                    {
                        "attachmentName":"CODE_TREE",
                        "sortNum":0,
                        "attachmentKey":"https://ttchain.tntlinking.com/files/original/652262df-f188-4ec2-8352-efee3790aa7c.png",
                        "attachmentKeyThumbnail":"https://ttchain.tntlinking.com/files/thumbnail/652262df-f188-4ec2-8352-efee3790aa7c.png"
                    }
                ],
                "cstCreate":"2021-09-24 11:04:59",
                "cstCreateTimestamp":1632452699000,
                "createUserId":"76838076-82f1-4032-9b1d-5e052b5906c2",
                "authorNickname":"122",
                "authorHeadImgUrl":"https://ttchain.tntlinking.com/userCenter_data/76838076-82f1-4032-9b1d-5e052b5906c2.png",
                "countBrowses":4,
                "bought":false
            },
            {
                "productId":"2c9780827bf34b0e017c15c3623b0186",
                "productName":"123",
                "productLang":"Java",
                "productPrice":2,
                "productOriginalPrice":2,
                "status":0,
                "storageAttachments":[
                    {
                        "attachmentName":"BANNER",
                        "sortNum":0,
                        "attachmentKey":"https://ttchain.tntlinking.com/files/original/ece02884-1160-4c69-8f67-9a7019964bbd.png",
                        "attachmentKeyThumbnail":"https://ttchain.tntlinking.com/files/thumbnail/ece02884-1160-4c69-8f67-9a7019964bbd.png"
                    },
                    {
                        "attachmentName":"EXEC_IMG",
                        "sortNum":0,
                        "attachmentKey":"https://ttchain.tntlinking.com/files/original/8cdfb780-0e12-4aa7-950e-559a09659262.png",
                        "attachmentKeyThumbnail":"https://ttchain.tntlinking.com/files/thumbnail/8cdfb780-0e12-4aa7-950e-559a09659262.png"
                    },
                    {
                        "attachmentName":"CODE_TREE",
                        "sortNum":0,
                        "attachmentKey":"https://ttchain.tntlinking.com/files/original/e07477ec-85ce-4953-a31d-ee60206528d7.png",
                        "attachmentKeyThumbnail":"https://ttchain.tntlinking.com/files/thumbnail/e07477ec-85ce-4953-a31d-ee60206528d7.png"
                    }
                ],
                "cstCreate":"2021-09-24 11:04:59",
                "cstCreateTimestamp":1632452699000,
                "createUserId":"411e73b1-8be7-4d8d-83a3-6b2948b2fbf5",
                "authorNickname":"Hatsune Imagine",
                "authorHeadImgUrl":"https://ttchain.tntlinking.com/userCenter_data/411e73b1-8be7-4d8d-83a3-6b2948b2fbf5.jpg",
                "countBrowses":4,
                "bought":false
            },
            {
                "productId":"2c9780827bf34b0e017c15c07233017c",
                "productName":"123",
                "productLang":"Java",
                "productPrice":1,
                "productOriginalPrice":1,
                "status":0,
                "storageAttachments":[
                    {
                        "attachmentName":"BANNER",
                        "sortNum":0,
                        "attachmentKey":"https://ttchain.tntlinking.com/files/original/e68ea350-9672-48dd-a418-e79db7eec27a.png",
                        "attachmentKeyThumbnail":"https://ttchain.tntlinking.com/files/thumbnail/e68ea350-9672-48dd-a418-e79db7eec27a.png"
                    },
                    {
                        "attachmentName":"EXEC_IMG",
                        "sortNum":0,
                        "attachmentKey":"https://ttchain.tntlinking.com/files/original/6c757c9c-03b8-4439-a08a-052bc4cde4be.png",
                        "attachmentKeyThumbnail":"https://ttchain.tntlinking.com/files/thumbnail/6c757c9c-03b8-4439-a08a-052bc4cde4be.png"
                    },
                    {
                        "attachmentName":"CODE_TREE",
                        "sortNum":0,
                        "attachmentKey":"https://ttchain.tntlinking.com/files/original/7cf927af-cc32-43c0-9087-1323493f2864.png",
                        "attachmentKeyThumbnail":"https://ttchain.tntlinking.com/files/thumbnail/7cf927af-cc32-43c0-9087-1323493f2864.png"
                    }
                ],
                "cstCreate":"2021-09-24 11:01:46",
                "cstCreateTimestamp":1632452506000,
                "createUserId":"411e73b1-8be7-4d8d-83a3-6b2948b2fbf5",
                "authorNickname":"Hatsune Imagine",
                "authorHeadImgUrl":"https://ttchain.tntlinking.com/userCenter_data/411e73b1-8be7-4d8d-83a3-6b2948b2fbf5.jpg",
                "countBrowses":18,
                "bought":false
            },
            {
                "productId":"2c9780827bf34b0e017c15a6c237015e",
                "productName":"测试11111",
                "productLang":"Java",
                "productPrice":10,
                "productOriginalPrice":10,
                "status":0,
                "storageAttachments":[
                    {
                        "attachmentName":"BANNER",
                        "sortNum":0,
                        "attachmentKey":"https://ttchain.tntlinking.com/files/original/c8017ab3-a3b4-4158-a6e4-6d884cd19fa1.png",
                        "attachmentKeyThumbnail":"https://ttchain.tntlinking.com/files/thumbnail/c8017ab3-a3b4-4158-a6e4-6d884cd19fa1.png"
                    },
                    {
                        "attachmentName":"EXEC_IMG",
                        "sortNum":0,
                        "attachmentKey":"https://ttchain.tntlinking.com/files/original/bf7ad6e8-ba01-4479-a0bc-c89e5de17bb3.png",
                        "attachmentKeyThumbnail":"https://ttchain.tntlinking.com/files/thumbnail/bf7ad6e8-ba01-4479-a0bc-c89e5de17bb3.png"
                    },
                    {
                        "attachmentName":"CODE_TREE",
                        "sortNum":0,
                        "attachmentKey":"https://ttchain.tntlinking.com/files/original/6ae669b2-1e01-4961-b37d-f4ae57ae1899.png",
                        "attachmentKeyThumbnail":"https://ttchain.tntlinking.com/files/thumbnail/6ae669b2-1e01-4961-b37d-f4ae57ae1899.png"
                    }
                ],
                "cstCreate":"2021-09-24 10:33:43",
                "cstCreateTimestamp":1632450823000,
                "createUserId":"411e73b1-8be7-4d8d-83a3-6b2948b2fbf5",
                "authorNickname":"Hatsune Imagine",
                "authorHeadImgUrl":"https://ttchain.tntlinking.com/userCenter_data/411e73b1-8be7-4d8d-83a3-6b2948b2fbf5.jpg",
                "countBrowses":1,
                "bought":false
            }
        ],
        "pageable":{
            "sort":{
                "unsorted":true,
                "sorted":false,
                "empty":true
            },
            "offset":0,
            "pageNumber":0,
            "pageSize":10,
            "paged":true,
            "unpaged":false
        },
        "totalPages":2,
        "totalElements":17,
        "last":false,
        "size":10,
        "number":0,
        "sort":{
            "unsorted":true,
            "sorted":false,
            "empty":true
        },
        "numberOfElements":10,
        "first":true,
        "empty":false
    },
    "cost":1634094252960
}
